Week7/ghdl/opdr71.vcd
$date
  Tue Apr 17 12:19:33 2018
$end
$version
  GHDL v0
$end
$timescale
  1 fs
$end
$var reg 8 ! dvect_tb[7:0] $end
$var reg 3 " svect_tb[2:0] $end
$var reg 1 # output_tb $end
$scope module uut $end
$var reg 8 $ dvect[7:0] $end
$var reg 3 % svect[2:0] $end
$var reg 1 & output $end
$upscope $end
$enddefinitions $end
#0
b01010101 !
b000 "
1#
b01010101 $
b000 %
1&
#10000000
b001 "
0#
b001 %
0&
#20000000
b010 "
1#
b010 %
1&
#30000000
b011 "
0#
b011 %
0&
#40000000
b100 "
1#
b100 %
1&
#50000000
b101 "
0#
b101 %
0&
#60000000
b110 "
1#
b110 %
1&
#70000000
b111 "
0#
b111 %
0&
