Week7/ghdl/opdr73.vcd
$date
  Fri Apr 27 13:59:11 2018
$end
$version
  GHDL v0
$end
$timescale
  1 fs
$end
$var reg 1 ! clk $end
$var reg 4 " numin_tb[3:0] $end
$var reg 1 # sel_tb $end
$var reg 4 $ numout_tb[3:0] $end
$scope module uut $end
$var reg 4 % numin[3:0] $end
$var reg 1 & sel $end
$var reg 4 ' numout[3:0] $end
$var reg 4 ( intout[3:0] $end
$upscope $end
$enddefinitions $end
#0
1!
b0000 "
0#
b000X $
b0000 %
0&
b000X '
b000X (
#10000000
b0001 "
b0X00 $
b0001 %
b0X00 '
b0X00 (
#20000000
b0010 "
b0010 %
#30000000
b0011 "
b0011 %
#40000000
b0100 "
b00X0 $
b0100 %
b00X0 '
b00X0 (
#50000000
b0101 "
b000X $
b0101 %
b000X '
b000X (
#60000000
b0110 "
b0X00 $
b0110 %
b0X00 '
b0X00 (
#70000000
b0111 "
b0111 %
#80000000
b1000 "
b00X0 $
b1000 %
b00X0 '
b00X0 (
#90000000
b1001 "
b1001 %
#100000000
b1010 "
b000X $
b1010 %
b000X '
b000X (
#110000000
b1011 "
b0X00 $
b1011 %
b0X00 '
b0X00 (
#120000000
b1100 "
b00X0 $
b1100 %
b00X0 '
b00X0 (
#130000000
b1101 "
b1101 %
#140000000
b1110 "
b1110 %
#150000000
b0000 "
1#
b0010 $
b0000 %
1&
b0010 '
b0010 (
#160000000
b0001 "
b001X $
b0001 %
b001X '
b001X (
#170000000
b0010 "
b00XX $
b0010 %
b00XX '
b00XX (
#180000000
b0011 "
b0010 $
b0011 %
b0010 '
b0010 (
#190000000
b0100 "
b001X $
b0100 %
b001X '
b001X (
#200000000
b0101 "
b0XX0 $
b0101 %
b0XX0 '
b0XX0 (
#210000000
b0110 "
b0XXX $
b0110 %
b0XXX '
b0XXX (
#220000000
b0111 "
b0111 %
#230000000
b1000 "
b0X10 $
b1000 %
b0X10 '
b0X10 (
#240000000
b1001 "
b0X1X $
b1001 %
b0X1X '
b0X1X (
#250000000
b1010 "
b1010 %
#260000000
b1011 "
b1011 %
#270000000
b1100 "
b1100 %
#280000000
b1101 "
b1101 %
#290000000
b1110 "
b1110 %
