Week9/Oef/opdr91.vcd
$date
  Fri May  4 09:48:02 2018
$end
$version
  GHDL v0
$end
$timescale
  1 fs
$end
$var reg 4 ! switches[3:0] $end
$var reg 4 " buttons[3:0] $end
$var reg 2 # rotary[1:0] $end
$var reg 4 $ leds[3:0] $end
$scope module dut $end
$var reg 4 % switches[3:0] $end
$var reg 4 & buttons[3:0] $end
$var reg 2 ' rotary[1:0] $end
$var reg 4 ( leds[3:0] $end
$var reg 4 ) swbuf[3:0] $end
$var reg 4 * bubuf[3:0] $end
$var reg 4 + rotbuf[3:0] $end
$upscope $end
$enddefinitions $end
#0
b0000 !
b0000 "
b00 #
b0000 $
b0000 %
b0000 &
b00 '
b0000 (
b0000 )
b0000 *
b0000 +
#30000000
b0001 !
b0011 $
b0001 %
b0011 (
b0011 )
#40000000
b0010 !
b0110 $
b0010 %
b0110 (
b0110 )
#50000000
b0011 !
b0111 $
b0011 %
b0111 (
b0111 )
#60000000
b0100 !
b1100 $
b0100 %
b1100 (
b1100 )
#70000000
b0101 !
b1111 $
b0101 %
b1111 (
b1111 )
#80000000
b0110 !
b1110 $
b0110 %
b1110 (
b1110 )
#90000000
b0111 !
b1111 $
b0111 %
b1111 (
b1111 )
#100000000
b1000 !
b1001 $
b1000 %
b1001 (
b1001 )
#110000000
b1001 !
b1011 $
b1001 %
b1011 (
b1011 )
#120000000
b1010 !
b1111 $
b1010 %
b1111 (
b1111 )
#130000000
b1011 !
b1011 %
#140000000
b1100 !
b1101 $
b1100 %
b1101 (
b1101 )
#150000000
b1101 !
b1111 $
b1101 %
b1111 (
b1111 )
#160000000
b1110 !
b1110 %
#170000000
b1111 !
b1111 %
#180000000
b0000 !
b0000 $
b0000 %
b0000 (
b0000 )
#200000000
b0001 "
b0011 $
b0001 &
b0011 (
b0011 *
#210000000
b0010 "
b0110 $
b0010 &
b0110 (
b0110 *
#220000000
b0011 "
b0111 $
b0011 &
b0111 (
b0111 *
#230000000
b0100 "
b1100 $
b0100 &
b1100 (
b1100 *
#240000000
b0101 "
b1111 $
b0101 &
b1111 (
b1111 *
#250000000
b0110 "
b1110 $
b0110 &
b1110 (
b1110 *
#260000000
b0111 "
b1111 $
b0111 &
b1111 (
b1111 *
#270000000
b1000 "
b1001 $
b1000 &
b1001 (
b1001 *
#280000000
b1001 "
b1011 $
b1001 &
b1011 (
b1011 *
#290000000
b1010 "
b1111 $
b1010 &
b1111 (
b1111 *
#300000000
b1011 "
b1011 &
#310000000
b1100 "
b1101 $
b1100 &
b1101 (
b1101 *
#320000000
b1101 "
b1111 $
b1101 &
b1111 (
b1111 *
#330000000
b1110 "
b1110 &
#340000000
b1111 "
b1111 &
#350000000
b0000 "
b0000 $
b0000 &
b0000 (
b0000 *
#370000000
b01 #
b0101 $
b01 '
b0101 (
b0101 +
#380000000
b10 #
b1010 $
b10 '
b1010 (
b1010 +
#390000000
b11 #
b0000 $
b11 '
b0000 (
b0000 +
